<svg width="134" height="40" viewBox="0 0 134 40" fill="none" xmlns="http://www.w3.org/2000/svg">
<path d="M132.847 20L121.942 39H12.1328L1.15492 20L12.1328 1H121.942L132.847 20Z" fill="url(#paint0_linear)" stroke="url(#paint1_linear)" stroke-width="2"/>
<defs>
<linearGradient id="paint0_linear" x1="24.0732" y1="-27.2442" x2="137.688" y2="61.2845" gradientUnits="userSpaceOnUse">
<stop stop-color="#F77852"/>
<stop offset="0.0315" stop-color="#E36640"/>
<stop offset="0.1437" stop-color="#EC5D31"/>
<stop offset="0.2711" stop-color="#ED5122"/>
<stop offset="0.4206" stop-color="#C83F16"/>
<stop offset="0.6131" stop-color="#B13007"/>
<stop offset="1" stop-color="#661800"/>
</linearGradient>
<linearGradient id="paint1_linear" x1="3.44571" y1="20" x2="134" y2="20" gradientUnits="userSpaceOnUse">
<stop stop-color="#AA7D00"/>
<stop offset="0.255208" stop-color="#FDFA8B"/>
<stop offset="0.489583" stop-color="#E1BC08"/>
<stop offset="0.729167" stop-color="#FDFA8B"/>
<stop offset="1" stop-color="#AA7D00"/>
</linearGradient>
</defs>
</svg>
