<svg width="37" height="26" viewBox="0 0 37 26" fill="none" xmlns="http://www.w3.org/2000/svg">
<path fill-rule="evenodd" clip-rule="evenodd" d="M32.7371 1H4.49857C2.54714 1 1 2.40429 1 4.07429V21.5814C1 23.2529 2.54714 24.6557 4.5 24.6557H32.7314C34.6829 24.6557 36.23 23.2514 36.23 21.5814V4.07714C36.2357 2.40857 34.6871 1 32.7386 1H32.7371Z" stroke="#F5FAFF" stroke-width="1.5"/>
<path fill-rule="evenodd" clip-rule="evenodd" d="M23.4392 12.6059L32.5649 5.17308C32.6653 5.09505 32.7478 4.99646 32.8069 4.88393C32.866 4.77139 32.9004 4.64751 32.9077 4.5206C32.915 4.39369 32.8951 4.26668 32.8493 4.1481C32.8035 4.02953 32.7328 3.92212 32.6421 3.83309C32.4462 3.64488 32.1887 3.53408 31.9174 3.52121C31.646 3.50833 31.3792 3.59427 31.1664 3.76309L18.5835 14.0217L16.1278 12.0302C16.1206 12.0231 16.1135 12.0159 16.1135 12.0088C16.0596 11.9605 16.0023 11.9161 15.9421 11.8759L5.95493 3.75594C5.74199 3.5863 5.47432 3.50049 5.20244 3.5147C4.93057 3.52892 4.6733 3.64217 4.47921 3.83309C4.38809 3.92223 4.31728 4.03 4.27163 4.14903C4.22598 4.26805 4.20656 4.39553 4.2147 4.52275C4.22283 4.64997 4.25834 4.77393 4.31878 4.88617C4.37923 4.99841 4.46319 5.09627 4.56493 5.17308L13.7978 12.6688L4.6035 20.4859C4.50494 20.5661 4.42468 20.6664 4.3681 20.7801C4.31152 20.8938 4.27994 21.0183 4.27547 21.1452C4.27101 21.2722 4.29376 21.3986 4.34221 21.516C4.39066 21.6334 4.46368 21.7391 4.55636 21.8259C4.75462 22.0116 5.0136 22.1189 5.28508 22.1278C5.55655 22.1368 5.82203 22.0467 6.03207 21.8745L15.3649 13.9445L17.8978 15.9988C18.0978 16.1602 18.3449 16.2374 18.5921 16.2374C18.8449 16.238 19.0902 16.1512 19.2864 15.9917L21.8892 13.8745L31.1678 21.8817C31.3678 22.0574 31.6321 22.1417 31.8864 22.1417C32.1672 22.1443 32.4382 22.039 32.6435 21.8474C32.7367 21.7611 32.8103 21.6559 32.8595 21.5388C32.9087 21.4218 32.9322 21.2955 32.9286 21.1686C32.9249 21.0417 32.8941 20.917 32.8383 20.803C32.7825 20.6889 32.7029 20.5881 32.6049 20.5074L23.4406 12.6059H23.4392Z" fill="#F5FAFF"/>
</svg>
