<svg width="42" height="42" viewBox="0 0 42 42" fill="none" xmlns="http://www.w3.org/2000/svg">
<path fill-rule="evenodd" clip-rule="evenodd" d="M0 21C0 32.5983 9.3996 42 21 42C32.5983 42 42 32.6004 42 21C42 9.4017 32.6004 0 21 0C9.4017 0 0 9.3996 0 21Z" fill="#4C65AB"/>
<path fill-rule="evenodd" clip-rule="evenodd" d="M26.4541 13.986H24.478C22.9261 13.986 22.6258 14.7231 22.6258 15.8046V18.186H26.3239L25.8409 21.9198H22.6279V31.5H18.7702V21.9219H15.5488V18.186H18.7723V15.435C18.7723 12.2388 20.7253 10.5 23.5729 10.5C24.9379 10.5 26.1118 10.6008 26.4541 10.647V13.986Z" fill="white"/>
</svg>
