<svg width="25" height="40" viewBox="0 0 25 40" fill="none" xmlns="http://www.w3.org/2000/svg">
<path d="M21.25 0H3.75C1.68212 0 0 1.68212 0 3.75V36.25C0 38.3179 1.68212 40 3.75 40H21.25C23.3179 40 25 38.3179 25 36.25V3.75C25 1.68212 23.3179 0 21.25 0ZM3.75 2.5H21.25C21.9397 2.5 22.5 3.0603 22.5 3.75V30H2.5V3.75C2.5 3.0603 3.0603 2.5 3.75 2.5ZM21.25 37.5H3.75C3.0603 37.5 2.5 36.9397 2.5 36.25V32.5H22.5V36.25C22.5 36.9397 21.9397 37.5 21.25 37.5Z" fill="#F5FAFF"/>
</svg>
