<svg width="42" height="42" viewBox="0 0 42 42" fill="none" xmlns="http://www.w3.org/2000/svg">
<path fill-rule="evenodd" clip-rule="evenodd" d="M0 21C0 32.5983 9.3996 42 21 42C32.5983 42 42 32.6004 42 21C42 9.4017 32.6004 0 21 0C9.4017 0 0 9.3996 0 21Z" fill="#1DADEB"/>
<path fill-rule="evenodd" clip-rule="evenodd" d="M29.3496 16.7159C29.358 16.9028 29.3622 17.0876 29.3622 17.2745C29.3622 22.9655 25.0299 29.5322 17.1045 29.5322C14.763 29.5347 12.4703 28.8633 10.5 27.5981C11.6282 27.7345 12.7723 27.6471 13.8666 27.3408C14.961 27.0345 15.9842 26.5154 16.8777 25.8131C15.9787 25.7961 15.1076 25.4985 14.3861 24.962C13.6646 24.4254 13.129 23.6767 12.8541 22.8206C13.4995 22.9433 14.1644 22.9182 14.7987 22.7471C13.8237 22.5498 12.947 22.0212 12.3173 21.2511C11.6876 20.4809 11.3438 19.5167 11.3442 18.5219V18.4652C11.9238 18.7886 12.5895 18.9839 13.2972 19.0049C12.3831 18.3967 11.7359 17.4624 11.4876 16.3929C11.2394 15.3234 11.4089 14.1995 11.9616 13.2509C13.0433 14.5825 14.3929 15.6717 15.9229 16.4477C17.453 17.2238 19.1291 17.6693 20.8425 17.7554C20.6256 16.8312 20.7199 15.8612 21.1108 14.9961C21.5017 14.131 22.1674 13.4193 23.0043 12.9713C23.8413 12.5234 24.8028 12.3644 25.7394 12.519C26.6761 12.6736 27.5355 13.1331 28.1841 13.8263C29.1492 13.6363 30.0746 13.2826 30.9204 12.7805C30.5991 13.7864 29.9145 14.6285 29.0262 15.164C29.8977 15.059 30.7272 14.828 31.5 14.4857C30.9212 15.3508 30.1931 16.106 29.3496 16.7159Z" fill="white"/>
</svg>
