<svg width="42" height="42" viewBox="0 0 42 42" fill="none" xmlns="http://www.w3.org/2000/svg">
<path fill-rule="evenodd" clip-rule="evenodd" d="M0 21C0 32.5983 9.3996 42 21 42C32.5983 42 42 32.6004 42 21C42 9.4017 32.6004 0 21 0C9.4017 0 0 9.3996 0 21Z" fill="#FF0000"/>
<path fill-rule="evenodd" clip-rule="evenodd" d="M19.6875 24.9375L26.25 21.6573L19.6875 18.375V24.9375Z" fill="#FF0000"/>
<path fill-rule="evenodd" clip-rule="evenodd" d="M32.319 15.7248C32.046 14.7021 31.248 13.8957 30.2295 13.6227C28.3878 13.125 21 13.125 21 13.125C21 13.125 13.6122 13.125 11.7705 13.6227C10.7541 13.8957 9.9519 14.7021 9.681 15.7227C9.1875 17.5791 9.1875 21.4473 9.1875 21.4473C9.1875 21.4473 9.1875 25.3155 9.681 27.1698C9.954 28.1946 10.752 28.9989 11.7705 29.274C13.6122 29.7696 21 29.7696 21 29.7696C21 29.7696 28.3878 29.7696 30.2295 29.274C31.2459 29.001 32.0481 28.1946 32.319 27.1698C32.8125 25.3155 32.8125 21.4473 32.8125 21.4473C32.8125 21.4473 32.8125 17.5791 32.319 15.7248Z" fill="white"/>
<path fill-rule="evenodd" clip-rule="evenodd" d="M18.584 24.9607L24.758 21.4474L18.584 17.9341V24.9607Z" fill="#FF0000"/>
</svg>
