<svg xmlns="http://www.w3.org/2000/svg" width="58" height="58" viewBox="0 0 58 58">
  <g fill="none" fill-rule="evenodd">
    <rect width="58" height="58"/>
    <g transform="translate(5 6)">
      <path fill="#192A41" d="M27.1231645,1.65569724 L27.1231645,1.65569724 C29.2568115,-1.46161031 34.1351595,0.12496668 34.0309644,3.9023387 C33.9576917,6.56412775 36.5780308,8.46963498 39.0840913,7.57743774 C42.6415142,6.31046383 45.6564502,10.4639582 43.3540743,13.4588073 C41.7306472,15.5688605 42.7315925,18.6525256 45.2840367,19.4047704 C48.9053211,20.4725811 48.9053211,25.6070887 45.2840367,26.6748995 C42.7315925,27.427817 41.7306472,30.5108093 43.3540743,32.6208625 C45.6564502,35.6157116 42.6415142,39.7698789 39.0840913,38.502905 C36.5780308,37.6100349 33.9576917,39.5155421 34.0309644,42.178004 C34.1351595,45.9547032 29.2568115,47.541953 27.1231645,44.4239726 C25.6193937,42.2271219 22.3806063,42.2271219 20.8768355,44.4239726 C18.7431885,47.541953 13.8648405,45.9547032 13.9690356,42.178004 C14.0429805,39.5155421 11.4219692,37.6100349 8.91590866,38.502905 C5.35848581,39.7698789 2.34354978,35.6157116 4.64592568,32.6208625 C6.26935277,30.5108093 5.26840745,27.427817 2.71596328,26.6748995 C-0.905321093,25.6070887 -0.905321093,20.4725811 2.71596328,19.4047704 C5.26840745,18.6525256 6.26935277,15.5688605 4.64592568,13.4588073 C2.34354978,10.4639582 5.35848581,6.31046383 8.91590866,7.57743774 C11.4219692,8.46963498 14.0429805,6.56412775 13.9690356,3.9023387 C13.8648405,0.12496668 18.7431885,-1.46161031 20.8768355,1.65569724 C22.3806063,3.85254791 25.6193937,3.85254791 27.1231645,1.65569724"/>
      <path fill="#545D6A" fill-rule="nonzero" d="M22.3621798,0.638961148 C19.256149,-3.89902156 12.2072724,-1.68048515 12.1674668,3.73085216 L12.16972,3.95197107 C12.2071594,5.2996775 10.9299665,6.27755244 9.66056436,5.92625002 L9.51961893,5.88169781 C4.33566127,4.03543454 -0.0668390305,9.98885936 3.09669824,14.3915264 L3.21889072,14.5558813 C4.0716969,15.6643183 3.54610742,17.2835701 2.207114,17.6781921 C-3.0546719,19.2297387 -3.13439593,26.5979697 1.96770631,28.3257099 L2.20686735,28.401405 C3.54616153,28.7964687 4.07167826,30.4153758 3.21930355,31.5232518 C-0.176751743,35.9407201 4.27081879,42.0680018 9.51981988,40.1985733 C10.786859,39.7471472 12.1104328,40.6606164 12.1685471,41.9798312 L12.1697294,42.1280316 C12.0160233,47.699323 19.2145251,50.0404975 22.3623237,45.4404984 C23.1510791,44.2882099 24.8489209,44.2882099 25.6378202,45.4407087 C28.7435062,49.979167 35.7927368,47.7605203 35.8325335,42.3494699 L35.8302798,42.1283628 C35.7931732,40.780046 37.0699493,39.8023796 38.3390631,40.153922 L38.479977,40.198501 C43.6643762,42.0449215 48.066813,36.0907922 44.9033008,31.6881424 L44.7811093,31.5237886 C43.9587784,30.4549619 44.4180596,28.9114538 45.6529308,28.4482918 L45.7933047,28.4013542 C51.1356225,26.8260612 51.1356225,19.2536087 45.7931326,17.6782649 C44.4538926,17.2835701 43.9283031,15.6643183 44.7806965,14.5564181 C48.1348525,10.1934508 43.837761,4.16336879 38.6742063,5.81616972 L38.4801801,5.88176937 C37.2134728,6.33273721 35.8899242,5.41917993 35.8315009,4.10005891 L35.8302828,3.95186964 C35.9819085,-1.54499661 28.9764986,-3.8973329 25.7658546,0.458711245 L25.6377994,0.638991578 C24.848891,1.79145994 23.1510722,1.79144979 22.3621798,0.638961148 Z M28.4695171,2.86682448 L28.6085505,2.67237247 C29.7278054,1.03711514 32.2863609,1.86923621 32.2316488,3.85270634 C32.1255471,7.70708304 35.8500953,10.4872812 39.4859271,9.34092207 L39.6878016,9.27317767 C41.5081134,8.62487479 43.0589231,10.6841217 42.0105753,12.2456055 L41.9270394,12.3617334 C39.533009,15.4733798 41.0092648,20.021473 44.7751874,21.1313486 C46.6750197,21.6915535 46.6750197,24.3881163 44.7749408,24.9483939 C41.0091599,26.0592204 39.5330915,30.6063972 41.9274522,33.7184732 C43.1068804,35.2526319 41.629063,37.3656249 39.8239624,36.8508239 L39.6880026,36.8072366 C35.9895853,35.4895485 32.1235889,38.3011338 32.2316457,42.2275224 C32.2849206,44.1585484 29.8606308,44.9982746 28.6999215,43.5314565 L28.6086527,43.4074468 C26.4351479,40.2321853 21.8041579,40.167384 19.5304829,43.2128454 L19.3914912,43.4072365 C18.2722217,45.042868 15.7136395,44.2107383 15.7683509,42.2276452 C15.877395,38.3014046 12.0105978,35.4894832 8.31179437,36.8073089 C6.44648866,37.4716364 4.86363391,35.2909859 6.07296064,33.7179365 C8.46690852,30.6063972 6.99084013,26.0592204 3.22523128,24.9484447 C1.32498027,24.3881163 1.32498027,21.6915535 3.2250592,21.1312759 C6.99073518,20.021473 8.46699103,15.4733798 6.07254781,12.3611966 C4.89318884,10.827128 6.37083584,8.7146525 8.17603011,9.22951507 L8.31199744,9.27310611 C12.010828,10.5899484 15.8774017,7.77818957 15.7683414,3.8523537 C15.7150786,1.92142351 18.1393435,1.08170807 19.3001709,2.54837535 L19.3914495,2.67237247 C21.5648541,5.84748764 26.1958421,5.91228591 28.4695171,2.86682448 Z"/>
      <path fill="#E0E0FB" fill-rule="nonzero" d="M28.0546108,21.3610403 L29.8282725,20.1503136 C30.3878258,19.763827 30.9079091,19.3964111 31.2373582,19.1410202 C33.1114228,17.6882341 34.4488497,16.2235401 35.1470888,14.6345377 L35.2704931,14.3351155 C35.787688,13.1612279 35.5194559,12.3096271 34.4196797,12.4843735 C33.9688244,12.5560111 33.4667783,12.7729309 32.4714501,13.2956457 L30.8817079,14.1442577 C30.4070959,14.3933151 29.9740011,14.6102108 29.5337482,14.8163801 C27.7252538,15.6632935 25.9513376,16.250261 24.0475831,16.5462458 L23.5250346,16.6197312 C17.9416041,17.322675 12.347478,21.1330635 12.4666018,25.939587 C12.5880292,30.8390583 16.7370207,33.4912077 21.9938605,33.5346638 C24.0187138,33.5514024 25.2434439,33.307013 26.8689756,32.6607335 C28.6876977,31.9376453 29.8409957,31.066784 30.5529324,30.033185 C31.0287441,29.3423953 30.6762084,28.7342851 29.915504,28.671174 C29.7680654,28.6589418 29.6065443,28.6608922 29.4148765,28.6769013 L29.8787432,28.4498745 L30.676084,28.082326 L31.0331996,27.9073953 C31.2031638,27.8215832 31.3951968,27.7213883 31.637594,27.5922937 C33.5081349,26.5960914 34.4469206,25.4376381 33.9991362,24.4229678 C33.7160837,23.7815767 33.1649406,23.6987634 32.4635983,23.9714921 L32.2948544,24.0449587 L30.9375965,24.6841427 C30.8189373,24.7392314 30.717122,24.7855189 30.6439914,24.8168783 C30.4220083,24.9120677 30.2025505,24.99927 29.9800141,25.0798241 C29.2328131,25.3502973 28.5102388,25.5011159 27.9216599,25.5286167 L28.5078457,25.3053042 L28.8917839,25.1510514 L29.0718781,25.0752597 C29.7859666,24.7689353 30.3038917,24.5008441 30.7625045,24.207092 C30.8829859,24.1299209 30.9997103,24.0509178 31.1214357,23.9645006 L32.2785739,23.0978959 L32.4484862,22.9735805 C34.3395995,21.615311 35.0199542,20.7118769 34.4028641,19.7754125 C33.8073877,18.871748 32.9339635,19.1457047 30.1310211,20.5474083 C29.4571934,20.884378 28.6972648,21.1788487 28.0546108,21.3610403 Z M33.0311733,24.8727999 L33.0295652,24.8836772 C33.1165118,25.2012646 32.5185549,25.9099501 31.1342569,26.6471919 L30.6170509,26.917837 L30.2179816,27.114489 L29.2994205,27.5398772 L28.7314066,27.8224739 C28.5474733,27.9157298 28.3627618,28.0047886 28.1660034,28.0956498 L27.1339961,28.5521074 C26.3135603,28.9164626 26.1477771,29.0180424 26.1512113,29.4762686 C26.155924,30.1050734 26.5416149,30.1705737 27.2266374,30.1032454 L27.5505566,30.0625646 L28.555162,29.8844479 C28.9202058,29.8187562 29.2031921,29.7749019 29.4217109,29.7523174 C28.8187803,30.4676163 27.8913285,31.1019624 26.4733749,31.6657129 C24.9727416,32.2623353 23.8845521,32.4794786 22.0027118,32.4639222 C17.2533606,32.4246613 13.6412079,30.115674 13.5370512,25.9130572 C13.4353656,21.8101451 18.5518877,18.3250723 23.6587878,17.6821228 C25.8846438,17.4018915 27.9205712,16.7542018 29.987863,15.7860943 C30.3300501,15.6258489 30.6671248,15.4598213 31.0201463,15.2787901 L31.981387,14.772007 L32.5189158,14.48279 L33.3156545,14.0648798 L33.6702628,13.8888805 C33.99461,13.7327669 34.231867,13.6348187 34.4152709,13.5816096 L34.3361483,13.7960625 L34.2808131,13.9271133 C33.6993299,15.4357573 32.4320603,16.8600413 30.581321,18.2947454 L30.3695888,18.4530989 L29.8160431,18.8462958 C28.5406601,19.7375809 26.4120542,21.1647941 26.2477307,21.44637 C25.9609063,21.9378571 26.1673258,22.454887 26.7105255,22.5845613 C26.9822939,22.6494387 27.3425625,22.6228815 27.796795,22.5279046 C28.6075398,22.3583834 29.6809695,21.9696775 30.6099512,21.5051096 L31.0778886,21.2729971 L31.5227218,21.0574056 C32.1428004,20.76173 32.5604761,20.5866895 32.908951,20.4773874 C33.3407161,20.3419608 33.5008422,20.3525859 33.5087542,20.3645928 C33.5575287,20.4386104 33.5429385,20.5296179 33.364888,20.7660488 C33.1577734,21.0410735 32.7850989,21.3830201 32.2251319,21.8080456 L30.6726613,22.9673351 C30.4972066,23.0969392 30.3439846,23.2035634 30.184963,23.3054204 C29.8298142,23.5329014 29.4283119,23.7461851 28.88939,23.9864564 L28.6497445,24.0912022 C27.90422,24.4110118 26.4685354,24.9046632 26.329048,24.9953526 C26.1471011,25.1136477 26.0191802,25.2828421 26.0038195,25.5196973 C25.9200233,26.8117994 28.1094758,26.8956968 30.3444734,26.0866683 C30.5871279,25.9988318 30.825665,25.9040483 31.0659929,25.8009925 L31.4281836,25.6371406 L32.798831,24.9917753 L32.8516787,24.9694698 C32.9996761,24.9119185 33.0303186,24.8867666 33.0311733,24.8727999 Z"/>
    </g>
  </g>
</svg>
