<svg width="64" height="60" viewBox="0 0 64 60" fill="none" xmlns="http://www.w3.org/2000/svg">
<path d="M13.6465 57H53.3529C53.793 57.0018 54.2153 56.8254 54.525 56.5104C54.8348 56.1954 55.0058 55.7683 54.9998 55.325V51.9592C54.7252 46.345 51.691 45.4025 51.5686 45.3675L40.9446 42.2108V37.5442C42.0308 36.5339 42.7022 35.1506 42.8265 33.6667H45.0807C46.4513 33.6667 47.5624 32.5474 47.5624 31.1667V26.1667C47.558 25.111 46.8959 24.1719 45.9079 23.82V18.6667C45.9079 12.0158 40.574 7 33.4997 7C26.4254 7 21.0915 12.0158 21.0915 18.6667V23.82C20.1035 24.1719 19.4414 25.111 19.4371 26.1667V31.1667C19.4414 32.2223 20.1035 33.1614 21.0915 33.5133V34.5C21.0915 36.3409 22.5729 37.8333 24.4003 37.8333H26.0548V42.2108L15.4375 45.3658C15.3084 45.4025 12.2758 46.345 12.0004 52V55.3108C11.9908 55.7564 12.1601 56.1869 12.4701 56.5049C12.78 56.8229 13.2042 57.0014 13.6465 57Z" fill="#BF4C20"/>
<path d="M10.6848 54H51.3146C51.7649 54.0018 52.1971 53.8254 52.514 53.5104C52.8309 53.1954 53.006 52.7683 52.9998 52.325V48.9592C52.7188 43.345 49.614 42.4025 49.4888 42.3675L38.6178 39.2108V34.5442C39.7292 33.5339 40.4162 32.1506 40.5434 30.6667H42.85C44.2525 30.6667 45.3894 29.5474 45.3894 28.1667V23.1667C45.3849 22.111 44.7074 21.1719 43.6965 20.82V15.6667C43.6965 9.01583 38.2386 4 30.9997 4C23.7608 4 18.3029 9.01583 18.3029 15.6667V20.82C17.2919 21.1719 16.6144 22.111 16.61 23.1667V28.1667C16.6144 29.2223 17.2919 30.1614 18.3029 30.5133V31.5C18.3029 33.3409 19.8188 34.8333 21.6887 34.8333H23.3816V39.2108L12.5174 42.3658C12.3854 42.4025 9.28226 43.345 9.0004 49V52.3108C8.99058 52.7564 9.16387 53.1869 9.48099 53.5049C9.7981 53.8229 10.2322 54.0014 10.6848 54ZM19.9958 17.4167C21.0702 12.3336 25.7313 8.76847 30.9997 9C36.2628 8.78497 40.9143 12.3428 42.0036 17.4167V20.6667H40.9574C40.1109 17.1542 38.4756 16.0758 38.2885 15.9633C35.9328 14.5717 28.5602 14.8017 25.7982 14.9758C24.9965 15.0055 24.2341 15.3257 23.6576 15.875C22.4166 17.2391 21.5398 18.8858 21.1064 20.6667H19.9958V17.4167ZM25.0745 36.3167C26.4593 38.0833 27.1111 39.8333 29.664 39.8333C33.501 39.8333 34.19 40.18 36.1859 37.3225C36.4102 37.0017 36.654 36.6608 36.9257 36.3125V39.7017C35.5646 43.2475 26.4068 43.2175 25.0754 39.7017L25.0745 36.3167ZM37.1111 33.66C34.4702 35.9942 34.3931 38.1667 32.3346 38.1667C28.6787 38.1667 28.7033 38.5167 27.2084 36.3783C26.8859 35.9167 26.505 35.3875 26.0327 34.8333H27.8492C28.1492 35.3473 28.7047 35.6649 29.3068 35.6667H32.6926C33.6276 35.6667 34.3855 34.9205 34.3855 34V32.3333C34.3855 31.4129 33.6276 30.6667 32.6926 30.6667H29.3068C28.3718 30.6667 27.6139 31.4129 27.6139 32.3333V33.1667H24.3974C23.043 31.7175 23.0769 30.4367 23.1362 28.8583C23.2432 27.6399 23.1612 26.4125 22.8932 25.2183C22.5656 23.5358 22.36 22.385 22.7663 20.9992C23.1297 19.5369 23.8473 18.1831 24.8578 17.0533C25.1429 16.7938 25.5143 16.6457 25.9024 16.6367C28.655 16.4625 34.8951 16.2567 37.4226 17.395C38.4282 18.1633 39.6606 20.8275 39.4583 22.9475C39.2636 24.9583 38.8345 25.9475 38.8345 27.5308C38.8328 30.1208 39.3576 31.6667 37.1102 33.6558L37.1111 33.66ZM29.3068 34V32.3333H32.6926V34H29.3068ZM43.6965 28.1667C43.6965 28.6269 43.3175 29 42.85 29H40.5646C40.4351 25.4275 40.8329 26.3333 41.1419 23.1092C41.1614 22.851 41.1665 22.592 41.1571 22.3333H42.85C43.3175 22.3333 43.6965 22.7064 43.6965 23.1667V28.1667ZM41.4314 12.32C39.6166 9.83333 36.4407 7.33333 30.9997 7.33333C25.5587 7.33333 22.3828 9.83333 20.568 12.32C23.7202 3.42083 38.2792 3.43333 41.4314 12.32ZM18.3029 23.1667C18.3029 22.7064 18.6819 22.3333 19.1494 22.3333H20.8533C20.8653 23.4091 20.991 24.4807 21.2282 25.5308C21.4816 26.6694 21.5513 27.8401 21.4348 29H19.1494C18.6819 29 18.3029 28.6269 18.3029 28.1667V23.1667ZM19.9958 31.5V30.6667H21.4559C21.5267 31.551 21.8057 32.407 22.2711 33.1667H21.6887C20.7538 33.1667 19.9958 32.4205 19.9958 31.5ZM12.9914 43.9658L23.7617 40.8375C24.4321 42 26.2689 44 30.9997 44C35.7305 44 37.5673 42 38.2377 40.8333L48.997 43.9583C49.0816 43.9867 51.0945 44.7083 51.3103 48.9958V52.3333H10.6933V49.0408C10.91 44.7083 12.9178 43.9908 12.9914 43.9658Z" fill="#F5FAFF"/>
</svg>
