<svg xmlns="http://www.w3.org/2000/svg" width="50" height="50" viewBox="0 0 50 50">
    <path fill="#2E3EA9" fill-rule="evenodd" d="M9.008 37.074l13.5-24.283c.103-.186.2-.32.46-.32 3.933.01 7.866.007 11.8.007.047 0 .095.008.17.089l-6.449 2.395c.344.61.666 1.185.991 1.76 1.822 3.217 3.65 6.432 5.46 9.657.17.303.365.417.702.432 1.284.057 2.567.139 3.85.212a.371.371 0 0 1 .216.077l-3.982.644 5.46 9.65h-1.38c-1.067 0-2.136-.007-3.204.007-.24.003-.362-.076-.473-.287-1.494-2.846-3.002-5.685-4.497-8.53-.117-.222-.22-.3-.496-.257-4.697.716-9.396 1.415-14.094 2.126-.124.018-.289.101-.343.203-.793 1.473-1.57 2.955-2.35 4.436-.01.02-.006.046-.012.108l6.269 2.104-.012.063H8.87c.049-.106.087-.203.137-.293zM7 41h36V9H7v32zm18.092-24.778c-.511.193-.97.307-1.257.874-1.177 2.33-2.426 4.625-3.647 6.933-.335.633-.665 1.268-1.028 1.962l11.399.576-5.467-10.345"/>
</svg>
