<?xml version="1.0" encoding="UTF-8"?>
<svg width="50px" height="50px" viewBox="0 0 50 50" version="1.1" xmlns="http://www.w3.org/2000/svg" xmlns:xlink="http://www.w3.org/1999/xlink">
    <!-- Generator: Sketch 58 (84663) - https://sketch.com -->
    <title>logo / evo-evo-symbol</title>
    <desc>Created with Sketch.</desc>
    <g id="logo-/-evo-evo-symbol" stroke="none" stroke-width="1" fill="none" fill-rule="evenodd">
        <path d="M33.6498985,35.5098425 C34.6766173,35.5098425 35.5084843,36.2909059 35.5084843,37.2549212 C35.5084843,38.2189365 34.6766173,39 33.6498985,39 C32.6231798,39 31.7913127,38.2189365 31.7913127,37.2549212 C31.7913127,36.2909059 32.6231798,35.5098425 33.6498985,35.5098425 Z M31.6258386,25.2871288 L32.1992253,25.2910804 C33.1668744,25.3042903 34.194634,25.3508101 35.2838053,25.4334902 L35.2838053,25.4334902 L35.2545481,25.7726255 C34.1846511,36.898021 22.8216127,41.4745006 14,37.0516336 C16.5465623,31.6791835 18.4366242,25.2864251 31.6258386,25.2871288 L31.6258386,25.2871288 Z M33.6498985,35.8264898 C32.8225281,35.8264898 32.151039,36.4569699 32.151039,37.2338114 C32.151039,38.0113566 32.8225281,38.641133 33.6498985,38.641133 C34.4780184,38.641133 35.1487581,38.0113566 35.1487581,37.2338114 C35.1487581,36.4569699 34.4780184,35.8264898 33.6498985,35.8264898 Z M34.1670051,36.4175649 C34.3101462,36.5245213 34.3910846,36.6891779 34.3843397,36.8608712 L34.3993283,36.8960542 C34.4071973,37.0949264 34.2871129,37.2760201 34.1008284,37.3591977 L34.0171191,37.3886168 L34.4442941,38.0922776 L34.0321077,38.0922776 L33.6498985,37.4237998 L33.3276437,37.4237998 L33.3276437,38.0922776 L32.9604231,38.0922776 L32.9604231,36.2909059 L33.5749556,36.2909059 C33.7825476,36.2620558 33.9931374,36.3077938 34.1670051,36.4175649 Z M33.4925183,36.5801105 L33.4925183,36.5801105 L33.3276437,36.5801105 L33.3276437,37.1423355 L33.68737,37.1360026 C33.7008598,37.1374099 33.7136001,37.1374099 33.7278392,37.1374099 C33.8927138,37.1367062 34.0261123,37.0093436 34.0246134,36.8538346 C34.0298594,36.7539147 33.9714039,36.6596242 33.8747275,36.6145899 L33.749656,36.5857919 L33.749656,36.5857919 L33.6215867,36.5741946 Z M21.1195828,11 L21.4270987,11.0050532 C28.1854395,11.1836104 34.4559177,15.8049103 35.2514335,23.915462 L35.2838053,24.2865231 L34.7924016,24.3205911 C18.8796668,25.3537869 16.7787749,18.5953593 14.0819201,12.8430779 L14,12.6690834 L14.4167713,12.4676481 C16.3699745,11.5585046 18.4357465,11.0811615 20.4790335,11.0092204 L20.9164873,11 L21.1195828,11 Z" id="EVO" fill="#87C6C9"></path>
    </g>
</svg>