<svg width="36" height="36" viewBox="0 0 36 36" fill="none" xmlns="http://www.w3.org/2000/svg">
<path d="M30.6 0H5.4C2.41904 0.003581 0.00322266 2.68803 0 6.00045V23.3351C0.00322266 26.6475 2.41904 29.3319 5.4 29.3355H7.06787L6.01201 35.2025C5.9666 35.4548 6.05596 35.7133 6.24111 35.8673C6.42627 36.0212 6.67471 36.0431 6.87949 35.9233L18.1482 29.3355H30.6C33.581 29.3319 35.9968 26.6475 36 23.3351V6.00045C35.9968 2.68803 33.581 0.003581 30.6 0ZM34.8 23.3351C34.7974 25.9114 32.9186 27.9992 30.6 28.0021H18C17.9024 28.0021 17.8066 28.0285 17.7205 28.0789L7.43584 34.094L8.38799 28.8023C8.42402 28.606 8.37891 28.4022 8.26494 28.2472C8.15098 28.0919 7.98018 28.0021 7.8 28.0021H5.4C3.08145 27.9992 1.20264 25.9114 1.2 23.3351V6.00045C1.20264 3.42408 3.08145 1.33636 5.4 1.33343H30.6C32.9186 1.33636 34.7974 3.42408 34.8 6.00045V23.3351Z" fill="#FBF6F6"/>
<path d="M9.488 18.08C9.056 18.08 8.63733 18.0187 8.232 17.896C7.832 17.7733 7.51467 17.6107 7.28 17.408L7.64 16.6C7.86933 16.7813 8.14933 16.9307 8.48 17.048C8.816 17.16 9.152 17.216 9.488 17.216C9.904 17.216 10.2133 17.1493 10.416 17.016C10.624 16.8827 10.728 16.7067 10.728 16.488C10.728 16.328 10.6693 16.1973 10.552 16.096C10.44 15.9893 10.296 15.9067 10.12 15.848C9.944 15.7893 9.704 15.7227 9.4 15.648C8.97333 15.5467 8.62667 15.4453 8.36 15.344C8.09867 15.2427 7.872 15.0853 7.68 14.872C7.49333 14.6533 7.4 14.36 7.4 13.992C7.4 13.6827 7.48267 13.4027 7.648 13.152C7.81867 12.896 8.072 12.6933 8.408 12.544C8.74933 12.3947 9.16533 12.32 9.656 12.32C9.99733 12.32 10.3333 12.3627 10.664 12.448C10.9947 12.5333 11.28 12.656 11.52 12.816L11.192 13.624C10.9467 13.48 10.6907 13.3707 10.424 13.296C10.1573 13.2213 9.89867 13.184 9.648 13.184C9.23733 13.184 8.93067 13.2533 8.728 13.392C8.53067 13.5307 8.432 13.7147 8.432 13.944C8.432 14.104 8.488 14.2347 8.6 14.336C8.71733 14.4373 8.864 14.5173 9.04 14.576C9.216 14.6347 9.456 14.7013 9.76 14.776C10.176 14.872 10.5173 14.9733 10.784 15.08C11.0507 15.1813 11.2773 15.3387 11.464 15.552C11.656 15.7653 11.752 16.0533 11.752 16.416C11.752 16.7253 11.6667 17.0053 11.496 17.256C11.3307 17.5067 11.0773 17.7067 10.736 17.856C10.3947 18.0053 9.97867 18.08 9.488 18.08ZM17.9033 12.4L15.4633 18H14.4393L11.9912 12.4H13.1193L14.9833 16.72L16.8633 12.4H17.9033ZM21.7106 15.056C22.0039 15.1893 22.2279 15.3707 22.3826 15.6C22.5426 15.824 22.6226 16.088 22.6226 16.392C22.6226 16.7333 22.5266 17.032 22.3346 17.288C22.1479 17.544 21.8812 17.7413 21.5346 17.88C21.1879 18.0133 20.7852 18.08 20.3266 18.08C19.8679 18.08 19.4652 18.0133 19.1186 17.88C18.7772 17.7413 18.5132 17.544 18.3266 17.288C18.1399 17.032 18.0466 16.7333 18.0466 16.392C18.0466 16.088 18.1239 15.824 18.2786 15.6C18.4332 15.3707 18.6546 15.1893 18.9426 15.056C18.7186 14.9333 18.5452 14.7733 18.4226 14.576C18.3052 14.3733 18.2466 14.1413 18.2466 13.88C18.2466 13.5653 18.3319 13.2907 18.5026 13.056C18.6786 12.8213 18.9239 12.64 19.2386 12.512C19.5532 12.384 19.9159 12.32 20.3266 12.32C20.7426 12.32 21.1079 12.384 21.4226 12.512C21.7372 12.64 21.9826 12.8213 22.1586 13.056C22.3346 13.2907 22.4226 13.5653 22.4226 13.88C22.4226 14.1413 22.3612 14.3707 22.2386 14.568C22.1159 14.7653 21.9399 14.928 21.7106 15.056ZM20.3266 13.136C20.0012 13.136 19.7426 13.2053 19.5506 13.344C19.3639 13.4827 19.2706 13.6773 19.2706 13.928C19.2706 14.168 19.3639 14.36 19.5506 14.504C19.7426 14.6427 20.0012 14.712 20.3266 14.712C20.6572 14.712 20.9186 14.6427 21.1106 14.504C21.3026 14.36 21.3986 14.168 21.3986 13.928C21.3986 13.6773 21.2999 13.4827 21.1026 13.344C20.9106 13.2053 20.6519 13.136 20.3266 13.136ZM20.3266 17.264C20.7106 17.264 21.0146 17.184 21.2386 17.024C21.4626 16.864 21.5746 16.6427 21.5746 16.36C21.5746 16.0827 21.4626 15.864 21.2386 15.704C21.0146 15.544 20.7106 15.464 20.3266 15.464C19.9426 15.464 19.6412 15.544 19.4226 15.704C19.2039 15.864 19.0946 16.0827 19.0946 16.36C19.0946 16.6427 19.2039 16.864 19.4226 17.024C19.6412 17.184 19.9426 17.264 20.3266 17.264ZM26.9293 15.056C27.2226 15.1893 27.4466 15.3707 27.6013 15.6C27.7613 15.824 27.8413 16.088 27.8413 16.392C27.8413 16.7333 27.7453 17.032 27.5533 17.288C27.3666 17.544 27.1 17.7413 26.7533 17.88C26.4066 18.0133 26.004 18.08 25.5453 18.08C25.0866 18.08 24.684 18.0133 24.3373 17.88C23.996 17.7413 23.732 17.544 23.5453 17.288C23.3586 17.032 23.2653 16.7333 23.2653 16.392C23.2653 16.088 23.3426 15.824 23.4973 15.6C23.652 15.3707 23.8733 15.1893 24.1613 15.056C23.9373 14.9333 23.764 14.7733 23.6413 14.576C23.524 14.3733 23.4653 14.1413 23.4653 13.88C23.4653 13.5653 23.5506 13.2907 23.7213 13.056C23.8973 12.8213 24.1426 12.64 24.4573 12.512C24.772 12.384 25.1346 12.32 25.5453 12.32C25.9613 12.32 26.3266 12.384 26.6413 12.512C26.956 12.64 27.2013 12.8213 27.3773 13.056C27.5533 13.2907 27.6413 13.5653 27.6413 13.88C27.6413 14.1413 27.58 14.3707 27.4573 14.568C27.3346 14.7653 27.1586 14.928 26.9293 15.056ZM25.5453 13.136C25.22 13.136 24.9613 13.2053 24.7693 13.344C24.5826 13.4827 24.4893 13.6773 24.4893 13.928C24.4893 14.168 24.5826 14.36 24.7693 14.504C24.9613 14.6427 25.22 14.712 25.5453 14.712C25.876 14.712 26.1373 14.6427 26.3293 14.504C26.5213 14.36 26.6173 14.168 26.6173 13.928C26.6173 13.6773 26.5186 13.4827 26.3213 13.344C26.1293 13.2053 25.8706 13.136 25.5453 13.136ZM25.5453 17.264C25.9293 17.264 26.2333 17.184 26.4573 17.024C26.6813 16.864 26.7933 16.6427 26.7933 16.36C26.7933 16.0827 26.6813 15.864 26.4573 15.704C26.2333 15.544 25.9293 15.464 25.5453 15.464C25.1613 15.464 24.86 15.544 24.6413 15.704C24.4226 15.864 24.3133 16.0827 24.3133 16.36C24.3133 16.6427 24.4226 16.864 24.6413 17.024C24.86 17.184 25.1613 17.264 25.5453 17.264Z" fill="#FBF6F6"/>
<circle cx="27" cy="31" r="5" fill="#FF4700"/>
</svg>
